<?xml version="1.0" encoding="UTF-8"?>
<session version="1.0">
<refactoring accessors="true" comment="Delete element from project &apos;org.fmaes.simppaal.simulinktotimedautomata&apos;&#x0A;- Original project: &apos;org.fmaes.simppaal.simulinktotimedautomata&apos;&#x0A;- Original element: &apos;org.fmaes.simppaal.simulinktotimedautomata.core.transformers.ModelTransformationType.java&apos;" description="Delete element" element1="/src&lt;org.fmaes.simppaal.simulinktotimedautomata.core.transformers{ModelTransformationType.java" elements="1" flags="589830" id="org.eclipse.jdt.ui.delete" resources="0" stamp="1502897617275" subPackages="false" version="1.0"/>
</session>